{'trajectories': [
[{'y': -48.8304949, 'x': -26.33423}, {'y': -48.8307631, 'x': -26.3342829}, {'y': -48.8306236, 'x': -26.3342589}, {'y': -48.8307631, 'x': -26.3342829}, {'y': -48.8349903, 'x': -26.3336915}, {'y': -48.8350976, 'x': -26.3345954}, {'y': -48.8350976, 'x': -26.3345954}, {'y': -48.8409448, 'x': -26.3208157}, {'y': -48.8450003, 'x': -26.3218447}, {'y': -48.8450754, 'x': -26.3199935}, {'y': -48.8451827, 'x': -26.3186424}, {'y': -48.8420606, 'x': -26.3181423}, {'y': -48.8409448, 'x': -26.3208157}, {'y': -48.8451827, 'x': -26.3186424}, {'y': -48.8450003, 'x': -26.3218447}, {'y': -48.8449895, 'x': -26.320258}, {'y': -48.8450271, 'x': -26.3215129}, {'y': -48.843348, 'x': -26.324167}, {'y': -48.8434875, 'x': -26.3241719}, {'y': -48.8483799, 'x': -26.3031296}, {'y': -48.8481438, 'x': -26.3034277}, {'y': -48.8484067, 'x': -26.3030719}, {'y': -48.8483799, 'x': -26.3031296}, {'y': -48.8481438, 'x': -26.3034277}, {'y': -48.8481975, 'x': -26.3032787}, {'y': -48.8444424, 'x': -26.3016292}, {'y': -48.8466257, 'x': -26.3015282}, {'y': -48.8499892, 'x': -26.3013791}, {'y': -48.8454455, 'x': -26.302793}, {'y': -48.8442814, 'x': -26.3026102}, {'y': -48.8448662, 'x': -26.3025766}, {'y': -48.8450485, 'x': -26.3025621}, {'y': -48.844775, 'x': -26.2987918}, {'y': -48.8447428, 'x': -26.2990322}, {'y': -48.8448071, 'x': -26.3016388}, {'y': -48.8447589, 'x': -26.3012012}, {'y': -48.8423234, 'x': -26.3005183}, {'y': -48.842243, 'x': -26.3006962}, {'y': -48.8422993, 'x': -26.300612}], 
[{'y': -48.8304949, 'x': -26.33423}, {'y': -48.8307631, 'x': -26.3342829}, {'y': -48.8306236, 'x': -26.3342589}, {'y': -48.8307631, 'x': -26.3342829}, {'y': -48.8349903, 'x': -26.3336915}, {'y': -48.8350976, 'x': -26.3345954}, {'y': -48.8350976, 'x': -26.3345954}, {'y': -48.8409448, 'x': -26.3208157}, {'y': -48.8450003, 'x': -26.3218447}, {'y': -48.8450754, 'x': -26.3199935}, {'y': -48.8451827, 'x': -26.3186424}, {'y': -48.8420606, 'x': -26.3181423}, {'y': -48.8409448, 'x': -26.3208157}, {'y': -48.8451827, 'x': -26.3186424}, {'y': -48.8450003, 'x': -26.3218447}, {'y': -48.8449895, 'x': -26.320258}, {'y': -48.8450271, 'x': -26.3215129}, {'y': -48.843348, 'x': -26.324167}, {'y': -48.8434875, 'x': -26.3241719}, {'y': -48.8483799, 'x': -26.3031296}, {'y': -48.8481438, 'x': -26.3034277}, {'y': -48.8484067, 'x': -26.3030719}, {'y': -48.8483799, 'x': -26.3031296}, {'y': -48.8481438, 'x': -26.3034277}, {'y': -48.8481975, 'x': -26.3032787}, {'y': -48.8444424, 'x': -26.3016292}, {'y': -48.8466257, 'x': -26.3015282}, {'y': -48.8499892, 'x': -26.3013791}, {'y': -48.8454455, 'x': -26.302793}, {'y': -48.8442814, 'x': -26.3026102}, {'y': -48.8448662, 'x': -26.3025766}, {'y': -48.8450485, 'x': -26.3025621}, {'y': -48.844775, 'x': -26.2987918}, {'y': -48.8447428, 'x': -26.2990322}, {'y': -48.8448071, 'x': -26.3016388}, {'y': -48.8447589, 'x': -26.3012012}, {'y': -48.8423234, 'x': -26.3005183}, {'y': -48.842243, 'x': -26.3006962}, {'y': -48.8422993, 'x': -26.300612}], 
[{'y': -48.8304949, 'x': -26.33423}, {'y': -48.8307631, 'x': -26.3342829}, {'y': -48.8306236, 'x': -26.3342589}, {'y': -48.8307631, 'x': -26.3342829}, {'y': -48.8349903, 'x': -26.3336915}, {'y': -48.8350976, 'x': -26.3345954}, {'y': -48.8350976, 'x': -26.3345954}, {'y': -48.8409448, 'x': -26.3208157}, {'y': -48.8450003, 'x': -26.3218447}, {'y': -48.8450754, 'x': -26.3199935}, {'y': -48.8451827, 'x': -26.3186424}, {'y': -48.8420606, 'x': -26.3181423}, {'y': -48.8409448, 'x': -26.3208157}, {'y': -48.8451827, 'x': -26.3186424}, {'y': -48.8450003, 'x': -26.3218447}, {'y': -48.8449895, 'x': -26.320258}, {'y': -48.8450271, 'x': -26.3215129}, {'y': -48.843348, 'x': -26.324167}, {'y': -48.8434875, 'x': -26.3241719}, {'y': -48.8483799, 'x': -26.3031296}, {'y': -48.8481438, 'x': -26.3034277}, {'y': -48.8484067, 'x': -26.3030719}, {'y': -48.8483799, 'x': -26.3031296}, {'y': -48.8481438, 'x': -26.3034277}, {'y': -48.8481975, 'x': -26.3032787}, {'y': -48.8444424, 'x': -26.3016292}, {'y': -48.8466257, 'x': -26.3015282}, {'y': -48.8499892, 'x': -26.3013791}, {'y': -48.8454455, 'x': -26.302793}, {'y': -48.8442814, 'x': -26.3026102}, {'y': -48.8448662, 'x': -26.3025766}, {'y': -48.8450485, 'x': -26.3025621}, {'y': -48.844775, 'x': -26.2987918}, {'y': -48.8447428, 'x': -26.2990322}, {'y': -48.8448071, 'x': -26.3016388}, {'y': -48.8447589, 'x': -26.3012012}, {'y': -48.8423234, 'x': -26.3005183}, {'y': -48.842243, 'x': -26.3006962}, {'y': -48.8422993, 'x': -26.300612}], 
[{'y': -48.8304949, 'x': -26.33423}, {'y': -48.8307631, 'x': -26.3342829}, {'y': -48.8306236, 'x': -26.3342589}, {'y': -48.8307631, 'x': -26.3342829}, {'y': -48.8349903, 'x': -26.3336915}, {'y': -48.8350976, 'x': -26.3345954}, {'y': -48.8350976, 'x': -26.3345954}, {'y': -48.8409448, 'x': -26.3208157}, {'y': -48.8450003, 'x': -26.3218447}, {'y': -48.8450754, 'x': -26.3199935}, {'y': -48.8451827, 'x': -26.3186424}, {'y': -48.8420606, 'x': -26.3181423}, {'y': -48.8409448, 'x': -26.3208157}, {'y': -48.8451827, 'x': -26.3186424}, {'y': -48.8450003, 'x': -26.3218447}, {'y': -48.8449895, 'x': -26.320258}, {'y': -48.8450271, 'x': -26.3215129}, {'y': -48.843348, 'x': -26.324167}, {'y': -48.8434875, 'x': -26.3241719}, {'y': -48.8483799, 'x': -26.3031296}, {'y': -48.8481438, 'x': -26.3034277}, {'y': -48.8484067, 'x': -26.3030719}, {'y': -48.8483799, 'x': -26.3031296}, {'y': -48.8481438, 'x': -26.3034277}, {'y': -48.8481975, 'x': -26.3032787}, {'y': -48.8444424, 'x': -26.3016292}, {'y': -48.8466257, 'x': -26.3015282}, {'y': -48.8499892, 'x': -26.3013791}, {'y': -48.8454455, 'x': -26.302793}, {'y': -48.8442814, 'x': -26.3026102}, {'y': -48.8448662, 'x': -26.3025766}, {'y': -48.8450485, 'x': -26.3025621}, {'y': -48.844775, 'x': -26.2987918}, {'y': -48.8447428, 'x': -26.2990322}, {'y': -48.8448071, 'x': -26.3016388}, {'y': -48.8447589, 'x': -26.3012012}, {'y': -48.8423234, 'x': -26.3005183}, {'y': -48.842243, 'x': -26.3006962}, {'y': -48.8422993, 'x': -26.300612}], 
[{'y': -48.8304949, 'x': -26.33423}, {'y': -48.8307631, 'x': -26.3342829}, {'y': -48.8306236, 'x': -26.3342589}, {'y': -48.8307631, 'x': -26.3342829}, {'y': -48.8349903, 'x': -26.3336915}, {'y': -48.8350976, 'x': -26.3345954}, {'y': -48.8350976, 'x': -26.3345954}, {'y': -48.8409448, 'x': -26.3208157}, {'y': -48.8450003, 'x': -26.3218447}, {'y': -48.8450754, 'x': -26.3199935}, {'y': -48.8451827, 'x': -26.3186424}, {'y': -48.8420606, 'x': -26.3181423}, {'y': -48.8409448, 'x': -26.3208157}, {'y': -48.8451827, 'x': -26.3186424}, {'y': -48.8450003, 'x': -26.3218447}, {'y': -48.8449895, 'x': -26.320258}, {'y': -48.8450271, 'x': -26.3215129}, {'y': -48.843348, 'x': -26.324167}, {'y': -48.8434875, 'x': -26.3241719}, {'y': -48.8483799, 'x': -26.3031296}, {'y': -48.8481438, 'x': -26.3034277}, {'y': -48.8484067, 'x': -26.3030719}, {'y': -48.8483799, 'x': -26.3031296}, {'y': -48.8481438, 'x': -26.3034277}, {'y': -48.8481975, 'x': -26.3032787}, {'y': -48.8444424, 'x': -26.3016292}, {'y': -48.8466257, 'x': -26.3015282}, {'y': -48.8499892, 'x': -26.3013791}, {'y': -48.8454455, 'x': -26.302793}, {'y': -48.8442814, 'x': -26.3026102}, {'y': -48.8448662, 'x': -26.3025766}, {'y': -48.8450485, 'x': -26.3025621}, {'y': -48.844775, 'x': -26.2987918}, {'y': -48.8447428, 'x': -26.2990322}, {'y': -48.8448071, 'x': -26.3016388}, {'y': -48.8447589, 'x': -26.3012012}, {'y': -48.8423234, 'x': -26.3005183}, {'y': -48.842243, 'x': -26.3006962}, {'y': -48.8422993, 'x': -26.300612}], 
[{'y': -48.8304949, 'x': -26.33423}, {'y': -48.8307631, 'x': -26.3342829}, {'y': -48.8306236, 'x': -26.3342589}, {'y': -48.8307631, 'x': -26.3342829}, {'y': -48.8349903, 'x': -26.3336915}, {'y': -48.8350976, 'x': -26.3345954}, {'y': -48.8350976, 'x': -26.3345954}, {'y': -48.8409448, 'x': -26.3208157}, {'y': -48.8450003, 'x': -26.3218447}, {'y': -48.8450754, 'x': -26.3199935}, {'y': -48.8451827, 'x': -26.3186424}, {'y': -48.8420606, 'x': -26.3181423}, {'y': -48.8409448, 'x': -26.3208157}, {'y': -48.8451827, 'x': -26.3186424}, {'y': -48.8450003, 'x': -26.3218447}, {'y': -48.8449895, 'x': -26.320258}, {'y': -48.8450271, 'x': -26.3215129}, {'y': -48.843348, 'x': -26.324167}, {'y': -48.8434875, 'x': -26.3241719}, {'y': -48.8483799, 'x': -26.3031296}, {'y': -48.8481438, 'x': -26.3034277}, {'y': -48.8484067, 'x': -26.3030719}, {'y': -48.8483799, 'x': -26.3031296}, {'y': -48.8481438, 'x': -26.3034277}, {'y': -48.8481975, 'x': -26.3032787}, {'y': -48.8444424, 'x': -26.3016292}, {'y': -48.8466257, 'x': -26.3015282}, {'y': -48.8499892, 'x': -26.3013791}, {'y': -48.8454455, 'x': -26.302793}, {'y': -48.8442814, 'x': -26.3026102}, {'y': -48.8448662, 'x': -26.3025766}, {'y': -48.8450485, 'x': -26.3025621}, {'y': -48.844775, 'x': -26.2987918}, {'y': -48.8447428, 'x': -26.2990322}, {'y': -48.8448071, 'x': -26.3016388}, {'y': -48.8447589, 'x': -26.3012012}, {'y': -48.8423234, 'x': -26.3005183}, {'y': -48.842243, 'x': -26.3006962}, {'y': -48.8422993, 'x': -26.300612}], 
[{'y': -48.8304949, 'x': -26.33423}, {'y': -48.8307631, 'x': -26.3342829}, {'y': -48.8306236, 'x': -26.3342589}, {'y': -48.8307631, 'x': -26.3342829}, {'y': -48.8349903, 'x': -26.3336915}, {'y': -48.8350976, 'x': -26.3345954}, {'y': -48.8350976, 'x': -26.3345954}, {'y': -48.8409448, 'x': -26.3208157}, {'y': -48.8450003, 'x': -26.3218447}, {'y': -48.8450754, 'x': -26.3199935}, {'y': -48.8451827, 'x': -26.3186424}, {'y': -48.8420606, 'x': -26.3181423}, {'y': -48.8409448, 'x': -26.3208157}, {'y': -48.8451827, 'x': -26.3186424}, {'y': -48.8450003, 'x': -26.3218447}, {'y': -48.8449895, 'x': -26.320258}, {'y': -48.8450271, 'x': -26.3215129}, {'y': -48.843348, 'x': -26.324167}, {'y': -48.8434875, 'x': -26.3241719}, {'y': -48.8483799, 'x': -26.3031296}, {'y': -48.8481438, 'x': -26.3034277}, {'y': -48.8484067, 'x': -26.3030719}, {'y': -48.8483799, 'x': -26.3031296}, {'y': -48.8481438, 'x': -26.3034277}, {'y': -48.8481975, 'x': -26.3032787}, {'y': -48.8444424, 'x': -26.3016292}, {'y': -48.8466257, 'x': -26.3015282}, {'y': -48.8499892, 'x': -26.3013791}, {'y': -48.8454455, 'x': -26.302793}, {'y': -48.8442814, 'x': -26.3026102}, {'y': -48.8448662, 'x': -26.3025766}, {'y': -48.8450485, 'x': -26.3025621}, {'y': -48.844775, 'x': -26.2987918}, {'y': -48.8447428, 'x': -26.2990322}, {'y': -48.8448071, 'x': -26.3016388}, {'y': -48.8447589, 'x': -26.3012012}, {'y': -48.8423234, 'x': -26.3005183}, {'y': -48.842243, 'x': -26.3006962}, {'y': -48.8422993, 'x': -26.300612}], 
[{'y': -48.8304949, 'x': -26.33423}, {'y': -48.8307631, 'x': -26.3342829}, {'y': -48.8306236, 'x': -26.3342589}, {'y': -48.8307631, 'x': -26.3342829}, {'y': -48.8349903, 'x': -26.3336915}, {'y': -48.8350976, 'x': -26.3345954}, {'y': -48.8350976, 'x': -26.3345954}, {'y': -48.8409448, 'x': -26.3208157}, {'y': -48.8450003, 'x': -26.3218447}, {'y': -48.8450754, 'x': -26.3199935}, {'y': -48.8451827, 'x': -26.3186424}, {'y': -48.8420606, 'x': -26.3181423}, {'y': -48.8409448, 'x': -26.3208157}, {'y': -48.8451827, 'x': -26.3186424}, {'y': -48.8450003, 'x': -26.3218447}, {'y': -48.8449895, 'x': -26.320258}, {'y': -48.8450271, 'x': -26.3215129}, {'y': -48.843348, 'x': -26.324167}, {'y': -48.8434875, 'x': -26.3241719}, {'y': -48.8483799, 'x': -26.3031296}, {'y': -48.8481438, 'x': -26.3034277}, {'y': -48.8484067, 'x': -26.3030719}, {'y': -48.8483799, 'x': -26.3031296}, {'y': -48.8481438, 'x': -26.3034277}, {'y': -48.8481975, 'x': -26.3032787}, {'y': -48.8444424, 'x': -26.3016292}, {'y': -48.8466257, 'x': -26.3015282}, {'y': -48.8499892, 'x': -26.3013791}, {'y': -48.8454455, 'x': -26.302793}, {'y': -48.8442814, 'x': -26.3026102}, {'y': -48.8448662, 'x': -26.3025766}, {'y': -48.8450485, 'x': -26.3025621}, {'y': -48.844775, 'x': -26.2987918}, {'y': -48.8447428, 'x': -26.2990322}, {'y': -48.8448071, 'x': -26.3016388}, {'y': -48.8447589, 'x': -26.3012012}, {'y': -48.8423234, 'x': -26.3005183}, {'y': -48.842243, 'x': -26.3006962}, {'y': -48.8422993, 'x': -26.300612}], 
[{'y': -48.8304949, 'x': -26.33423}, {'y': -48.8307631, 'x': -26.3342829}, {'y': -48.8306236, 'x': -26.3342589}, {'y': -48.8307631, 'x': -26.3342829}, {'y': -48.8349903, 'x': -26.3336915}, {'y': -48.8350976, 'x': -26.3345954}, {'y': -48.8350976, 'x': -26.3345954}, {'y': -48.8409448, 'x': -26.3208157}, {'y': -48.8450003, 'x': -26.3218447}, {'y': -48.8450754, 'x': -26.3199935}, {'y': -48.8451827, 'x': -26.3186424}, {'y': -48.8420606, 'x': -26.3181423}, {'y': -48.8409448, 'x': -26.3208157}, {'y': -48.8451827, 'x': -26.3186424}, {'y': -48.8450003, 'x': -26.3218447}, {'y': -48.8449895, 'x': -26.320258}, {'y': -48.8450271, 'x': -26.3215129}, {'y': -48.843348, 'x': -26.324167}, {'y': -48.8434875, 'x': -26.3241719}, {'y': -48.8483799, 'x': -26.3031296}, {'y': -48.8481438, 'x': -26.3034277}, {'y': -48.8484067, 'x': -26.3030719}, {'y': -48.8483799, 'x': -26.3031296}, {'y': -48.8481438, 'x': -26.3034277}, {'y': -48.8481975, 'x': -26.3032787}, {'y': -48.8444424, 'x': -26.3016292}, {'y': -48.8466257, 'x': -26.3015282}, {'y': -48.8499892, 'x': -26.3013791}, {'y': -48.8454455, 'x': -26.302793}, {'y': -48.8442814, 'x': -26.3026102}, {'y': -48.8448662, 'x': -26.3025766}, {'y': -48.8450485, 'x': -26.3025621}, {'y': -48.844775, 'x': -26.2987918}, {'y': -48.8447428, 'x': -26.2990322}, {'y': -48.8448071, 'x': -26.3016388}, {'y': -48.8447589, 'x': -26.3012012}, {'y': -48.8423234, 'x': -26.3005183}, {'y': -48.842243, 'x': -26.3006962}, {'y': -48.8422993, 'x': -26.300612}], 
[{'y': -48.8304949, 'x': -26.33423}, {'y': -48.8307631, 'x': -26.3342829}, {'y': -48.8306236, 'x': -26.3342589}, {'y': -48.8307631, 'x': -26.3342829}, {'y': -48.8349903, 'x': -26.3336915}, {'y': -48.8350976, 'x': -26.3345954}, {'y': -48.8350976, 'x': -26.3345954}, {'y': -48.8409448, 'x': -26.3208157}, {'y': -48.8450003, 'x': -26.3218447}, {'y': -48.8450754, 'x': -26.3199935}, {'y': -48.8451827, 'x': -26.3186424}, {'y': -48.8420606, 'x': -26.3181423}, {'y': -48.8409448, 'x': -26.3208157}, {'y': -48.8451827, 'x': -26.3186424}, {'y': -48.8450003, 'x': -26.3218447}, {'y': -48.8449895, 'x': -26.320258}, {'y': -48.8450271, 'x': -26.3215129}, {'y': -48.843348, 'x': -26.324167}, {'y': -48.8434875, 'x': -26.3241719}, {'y': -48.8483799, 'x': -26.3031296}, {'y': -48.8481438, 'x': -26.3034277}, {'y': -48.8484067, 'x': -26.3030719}, {'y': -48.8483799, 'x': -26.3031296}, {'y': -48.8481438, 'x': -26.3034277}, {'y': -48.8481975, 'x': -26.3032787}, {'y': -48.8444424, 'x': -26.3016292}, {'y': -48.8466257, 'x': -26.3015282}, {'y': -48.8499892, 'x': -26.3013791}, {'y': -48.8454455, 'x': -26.302793}, {'y': -48.8442814, 'x': -26.3026102}, {'y': -48.8448662, 'x': -26.3025766}, {'y': -48.8450485, 'x': -26.3025621}, {'y': -48.844775, 'x': -26.2987918}, {'y': -48.8447428, 'x': -26.2990322}, {'y': -48.8448071, 'x': -26.3016388}, {'y': -48.8447589, 'x': -26.3012012}, {'y': -48.8423234, 'x': -26.3005183}, {'y': -48.842243, 'x': -26.3006962}, {'y': -48.8422993, 'x': -26.300612}], 
[{'y': -48.8304949, 'x': -26.33423}, {'y': -48.8307631, 'x': -26.3342829}, {'y': -48.8306236, 'x': -26.3342589}, {'y': -48.8307631, 'x': -26.3342829}, {'y': -48.8349903, 'x': -26.3336915}, {'y': -48.8350976, 'x': -26.3345954}, {'y': -48.8350976, 'x': -26.3345954}, {'y': -48.8409448, 'x': -26.3208157}, {'y': -48.8450003, 'x': -26.3218447}, {'y': -48.8450754, 'x': -26.3199935}, {'y': -48.8451827, 'x': -26.3186424}, {'y': -48.8420606, 'x': -26.3181423}, {'y': -48.8409448, 'x': -26.3208157}, {'y': -48.8451827, 'x': -26.3186424}, {'y': -48.8450003, 'x': -26.3218447}, {'y': -48.8449895, 'x': -26.320258}, {'y': -48.8450271, 'x': -26.3215129}, {'y': -48.843348, 'x': -26.324167}, {'y': -48.8434875, 'x': -26.3241719}, {'y': -48.8483799, 'x': -26.3031296}, {'y': -48.8481438, 'x': -26.3034277}, {'y': -48.8484067, 'x': -26.3030719}, {'y': -48.8483799, 'x': -26.3031296}, {'y': -48.8481438, 'x': -26.3034277}, {'y': -48.8481975, 'x': -26.3032787}, {'y': -48.8444424, 'x': -26.3016292}, {'y': -48.8466257, 'x': -26.3015282}, {'y': -48.8499892, 'x': -26.3013791}, {'y': -48.8454455, 'x': -26.302793}, {'y': -48.8442814, 'x': -26.3026102}, {'y': -48.8448662, 'x': -26.3025766}, {'y': -48.8450485, 'x': -26.3025621}, {'y': -48.844775, 'x': -26.2987918}, {'y': -48.8447428, 'x': -26.2990322}, {'y': -48.8448071, 'x': -26.3016388}, {'y': -48.8447589, 'x': -26.3012012}, {'y': -48.8423234, 'x': -26.3005183}, {'y': -48.842243, 'x': -26.3006962}, {'y': -48.8422993, 'x': -26.300612}], 
[{'y': -48.8304949, 'x': -26.33423}, {'y': -48.8307631, 'x': -26.3342829}, {'y': -48.8306236, 'x': -26.3342589}, {'y': -48.8307631, 'x': -26.3342829}, {'y': -48.8349903, 'x': -26.3336915}, {'y': -48.8350976, 'x': -26.3345954}, {'y': -48.8350976, 'x': -26.3345954}, {'y': -48.8409448, 'x': -26.3208157}, {'y': -48.8450003, 'x': -26.3218447}, {'y': -48.8450754, 'x': -26.3199935}, {'y': -48.8451827, 'x': -26.3186424}, {'y': -48.8420606, 'x': -26.3181423}, {'y': -48.8409448, 'x': -26.3208157}, {'y': -48.8451827, 'x': -26.3186424}, {'y': -48.8450003, 'x': -26.3218447}, {'y': -48.8449895, 'x': -26.320258}, {'y': -48.8450271, 'x': -26.3215129}, {'y': -48.843348, 'x': -26.324167}, {'y': -48.8434875, 'x': -26.3241719}, {'y': -48.8483799, 'x': -26.3031296}, {'y': -48.8481438, 'x': -26.3034277}, {'y': -48.8484067, 'x': -26.3030719}, {'y': -48.8483799, 'x': -26.3031296}, {'y': -48.8481438, 'x': -26.3034277}, {'y': -48.8481975, 'x': -26.3032787}, {'y': -48.8444424, 'x': -26.3016292}, {'y': -48.8466257, 'x': -26.3015282}, {'y': -48.8499892, 'x': -26.3013791}, {'y': -48.8454455, 'x': -26.302793}, {'y': -48.8442814, 'x': -26.3026102}, {'y': -48.8448662, 'x': -26.3025766}, {'y': -48.8450485, 'x': -26.3025621}, {'y': -48.844775, 'x': -26.2987918}, {'y': -48.8447428, 'x': -26.2990322}, {'y': -48.8448071, 'x': -26.3016388}, {'y': -48.8447589, 'x': -26.3012012}, {'y': -48.8423234, 'x': -26.3005183}, {'y': -48.842243, 'x': -26.3006962}, {'y': -48.8422993, 'x': -26.300612}], 
[{'y': -48.8304949, 'x': -26.33423}, {'y': -48.8307631, 'x': -26.3342829}, {'y': -48.8306236, 'x': -26.3342589}, {'y': -48.8307631, 'x': -26.3342829}, {'y': -48.8349903, 'x': -26.3336915}, {'y': -48.8350976, 'x': -26.3345954}, {'y': -48.8350976, 'x': -26.3345954}, {'y': -48.8409448, 'x': -26.3208157}, {'y': -48.8450003, 'x': -26.3218447}, {'y': -48.8450754, 'x': -26.3199935}, {'y': -48.8451827, 'x': -26.3186424}, {'y': -48.8420606, 'x': -26.3181423}, {'y': -48.8409448, 'x': -26.3208157}, {'y': -48.8451827, 'x': -26.3186424}, {'y': -48.8450003, 'x': -26.3218447}, {'y': -48.8449895, 'x': -26.320258}, {'y': -48.8450271, 'x': -26.3215129}, {'y': -48.843348, 'x': -26.324167}, {'y': -48.8434875, 'x': -26.3241719}, {'y': -48.8483799, 'x': -26.3031296}, {'y': -48.8481438, 'x': -26.3034277}, {'y': -48.8484067, 'x': -26.3030719}, {'y': -48.8483799, 'x': -26.3031296}, {'y': -48.8481438, 'x': -26.3034277}, {'y': -48.8481975, 'x': -26.3032787}, {'y': -48.8444424, 'x': -26.3016292}, {'y': -48.8466257, 'x': -26.3015282}, {'y': -48.8499892, 'x': -26.3013791}, {'y': -48.8454455, 'x': -26.302793}, {'y': -48.8442814, 'x': -26.3026102}, {'y': -48.8448662, 'x': -26.3025766}, {'y': -48.8450485, 'x': -26.3025621}, {'y': -48.844775, 'x': -26.2987918}, {'y': -48.8447428, 'x': -26.2990322}, {'y': -48.8448071, 'x': -26.3016388}, {'y': -48.8447589, 'x': -26.3012012}, {'y': -48.8423234, 'x': -26.3005183}, {'y': -48.842243, 'x': -26.3006962}, {'y': -48.8422993, 'x': -26.300612}], 
[{'y': -48.8304949, 'x': -26.33423}, {'y': -48.8307631, 'x': -26.3342829}, {'y': -48.8306236, 'x': -26.3342589}, {'y': -48.8307631, 'x': -26.3342829}, {'y': -48.8349903, 'x': -26.3336915}, {'y': -48.8350976, 'x': -26.3345954}, {'y': -48.8350976, 'x': -26.3345954}, {'y': -48.8409448, 'x': -26.3208157}, {'y': -48.8450003, 'x': -26.3218447}, {'y': -48.8450754, 'x': -26.3199935}, {'y': -48.8451827, 'x': -26.3186424}, {'y': -48.8420606, 'x': -26.3181423}, {'y': -48.8409448, 'x': -26.3208157}, {'y': -48.8451827, 'x': -26.3186424}, {'y': -48.8450003, 'x': -26.3218447}, {'y': -48.8449895, 'x': -26.320258}, {'y': -48.8450271, 'x': -26.3215129}, {'y': -48.843348, 'x': -26.324167}, {'y': -48.8434875, 'x': -26.3241719}, {'y': -48.8483799, 'x': -26.3031296}, {'y': -48.8481438, 'x': -26.3034277}, {'y': -48.8484067, 'x': -26.3030719}, {'y': -48.8483799, 'x': -26.3031296}, {'y': -48.8481438, 'x': -26.3034277}, {'y': -48.8481975, 'x': -26.3032787}, {'y': -48.8444424, 'x': -26.3016292}, {'y': -48.8466257, 'x': -26.3015282}, {'y': -48.8499892, 'x': -26.3013791}, {'y': -48.8454455, 'x': -26.302793}, {'y': -48.8442814, 'x': -26.3026102}, {'y': -48.8448662, 'x': -26.3025766}, {'y': -48.8450485, 'x': -26.3025621}, {'y': -48.844775, 'x': -26.2987918}, {'y': -48.8447428, 'x': -26.2990322}, {'y': -48.8448071, 'x': -26.3016388}, {'y': -48.8447589, 'x': -26.3012012}, {'y': -48.8423234, 'x': -26.3005183}, {'y': -48.842243, 'x': -26.3006962}, {'y': -48.8422993, 'x': -26.300612}], 
[{'y': -48.8304949, 'x': -26.33423}, {'y': -48.8307631, 'x': -26.3342829}, {'y': -48.8306236, 'x': -26.3342589}, {'y': -48.8307631, 'x': -26.3342829}, {'y': -48.8349903, 'x': -26.3336915}, {'y': -48.8350976, 'x': -26.3345954}, {'y': -48.8350976, 'x': -26.3345954}, {'y': -48.8409448, 'x': -26.3208157}, {'y': -48.8450003, 'x': -26.3218447}, {'y': -48.8450754, 'x': -26.3199935}, {'y': -48.8451827, 'x': -26.3186424}, {'y': -48.8420606, 'x': -26.3181423}, {'y': -48.8409448, 'x': -26.3208157}, {'y': -48.8451827, 'x': -26.3186424}, {'y': -48.8450003, 'x': -26.3218447}, {'y': -48.8449895, 'x': -26.320258}, {'y': -48.8450271, 'x': -26.3215129}, {'y': -48.843348, 'x': -26.324167}, {'y': -48.8434875, 'x': -26.3241719}, {'y': -48.8483799, 'x': -26.3031296}, {'y': -48.8481438, 'x': -26.3034277}, {'y': -48.8484067, 'x': -26.3030719}, {'y': -48.8483799, 'x': -26.3031296}, {'y': -48.8481438, 'x': -26.3034277}, {'y': -48.8481975, 'x': -26.3032787}, {'y': -48.8444424, 'x': -26.3016292}, {'y': -48.8466257, 'x': -26.3015282}, {'y': -48.8499892, 'x': -26.3013791}, {'y': -48.8454455, 'x': -26.302793}, {'y': -48.8442814, 'x': -26.3026102}, {'y': -48.8448662, 'x': -26.3025766}, {'y': -48.8450485, 'x': -26.3025621}, {'y': -48.844775, 'x': -26.2987918}, {'y': -48.8447428, 'x': -26.2990322}, {'y': -48.8448071, 'x': -26.3016388}, {'y': -48.8447589, 'x': -26.3012012}, {'y': -48.8423234, 'x': -26.3005183}, {'y': -48.842243, 'x': -26.3006962}, {'y': -48.8422993, 'x': -26.300612}], 
[{'y': -48.8304949, 'x': -26.33423}, {'y': -48.8307631, 'x': -26.3342829}, {'y': -48.8306236, 'x': -26.3342589}, {'y': -48.8307631, 'x': -26.3342829}, {'y': -48.8349903, 'x': -26.3336915}, {'y': -48.8350976, 'x': -26.3345954}, {'y': -48.8350976, 'x': -26.3345954}, {'y': -48.8409448, 'x': -26.3208157}, {'y': -48.8450003, 'x': -26.3218447}, {'y': -48.8450754, 'x': -26.3199935}, {'y': -48.8451827, 'x': -26.3186424}, {'y': -48.8420606, 'x': -26.3181423}, {'y': -48.8409448, 'x': -26.3208157}, {'y': -48.8451827, 'x': -26.3186424}, {'y': -48.8450003, 'x': -26.3218447}, {'y': -48.8449895, 'x': -26.320258}, {'y': -48.8450271, 'x': -26.3215129}, {'y': -48.843348, 'x': -26.324167}, {'y': -48.8434875, 'x': -26.3241719}, {'y': -48.8483799, 'x': -26.3031296}, {'y': -48.8481438, 'x': -26.3034277}, {'y': -48.8484067, 'x': -26.3030719}, {'y': -48.8483799, 'x': -26.3031296}, {'y': -48.8481438, 'x': -26.3034277}, {'y': -48.8481975, 'x': -26.3032787}, {'y': -48.8444424, 'x': -26.3016292}, {'y': -48.8466257, 'x': -26.3015282}, {'y': -48.8499892, 'x': -26.3013791}, {'y': -48.8454455, 'x': -26.302793}, {'y': -48.8442814, 'x': -26.3026102}, {'y': -48.8448662, 'x': -26.3025766}, {'y': -48.8450485, 'x': -26.3025621}, {'y': -48.844775, 'x': -26.2987918}, {'y': -48.8447428, 'x': -26.2990322}, {'y': -48.8448071, 'x': -26.3016388}, {'y': -48.8447589, 'x': -26.3012012}, {'y': -48.8423234, 'x': -26.3005183}, {'y': -48.842243, 'x': -26.3006962}, {'y': -48.8422993, 'x': -26.300612}], 
[{'y': -48.8304949, 'x': -26.33423}, {'y': -48.8307631, 'x': -26.3342829}, {'y': -48.8306236, 'x': -26.3342589}, {'y': -48.8307631, 'x': -26.3342829}, {'y': -48.8349903, 'x': -26.3336915}, {'y': -48.8350976, 'x': -26.3345954}, {'y': -48.8350976, 'x': -26.3345954}, {'y': -48.8409448, 'x': -26.3208157}, {'y': -48.8450003, 'x': -26.3218447}, {'y': -48.8450754, 'x': -26.3199935}, {'y': -48.8451827, 'x': -26.3186424}, {'y': -48.8420606, 'x': -26.3181423}, {'y': -48.8409448, 'x': -26.3208157}, {'y': -48.8451827, 'x': -26.3186424}, {'y': -48.8450003, 'x': -26.3218447}, {'y': -48.8449895, 'x': -26.320258}, {'y': -48.8450271, 'x': -26.3215129}, {'y': -48.843348, 'x': -26.324167}, {'y': -48.8434875, 'x': -26.3241719}, {'y': -48.8483799, 'x': -26.3031296}, {'y': -48.8481438, 'x': -26.3034277}, {'y': -48.8484067, 'x': -26.3030719}, {'y': -48.8483799, 'x': -26.3031296}, {'y': -48.8481438, 'x': -26.3034277}, {'y': -48.8481975, 'x': -26.3032787}, {'y': -48.8444424, 'x': -26.3016292}, {'y': -48.8466257, 'x': -26.3015282}, {'y': -48.8499892, 'x': -26.3013791}, {'y': -48.8454455, 'x': -26.302793}, {'y': -48.8442814, 'x': -26.3026102}, {'y': -48.8448662, 'x': -26.3025766}, {'y': -48.8450485, 'x': -26.3025621}, {'y': -48.844775, 'x': -26.2987918}, {'y': -48.8447428, 'x': -26.2990322}, {'y': -48.8448071, 'x': -26.3016388}, {'y': -48.8447589, 'x': -26.3012012}, {'y': -48.8423234, 'x': -26.3005183}, {'y': -48.842243, 'x': -26.3006962}, {'y': -48.8422993, 'x': -26.300612}], 
[{'y': -48.8304949, 'x': -26.33423}, {'y': -48.8307631, 'x': -26.3342829}, {'y': -48.8306236, 'x': -26.3342589}, {'y': -48.8307631, 'x': -26.3342829}, {'y': -48.8349903, 'x': -26.3336915}, {'y': -48.8350976, 'x': -26.3345954}, {'y': -48.8350976, 'x': -26.3345954}, {'y': -48.8409448, 'x': -26.3208157}, {'y': -48.8450003, 'x': -26.3218447}, {'y': -48.8450754, 'x': -26.3199935}, {'y': -48.8451827, 'x': -26.3186424}, {'y': -48.8420606, 'x': -26.3181423}, {'y': -48.8409448, 'x': -26.3208157}, {'y': -48.8451827, 'x': -26.3186424}, {'y': -48.8450003, 'x': -26.3218447}, {'y': -48.8449895, 'x': -26.320258}, {'y': -48.8450271, 'x': -26.3215129}, {'y': -48.843348, 'x': -26.324167}, {'y': -48.8434875, 'x': -26.3241719}, {'y': -48.8483799, 'x': -26.3031296}, {'y': -48.8481438, 'x': -26.3034277}, {'y': -48.8484067, 'x': -26.3030719}, {'y': -48.8483799, 'x': -26.3031296}, {'y': -48.8481438, 'x': -26.3034277}, {'y': -48.8481975, 'x': -26.3032787}, {'y': -48.8444424, 'x': -26.3016292}, {'y': -48.8466257, 'x': -26.3015282}, {'y': -48.8499892, 'x': -26.3013791}, {'y': -48.8454455, 'x': -26.302793}, {'y': -48.8442814, 'x': -26.3026102}, {'y': -48.8448662, 'x': -26.3025766}, {'y': -48.8450485, 'x': -26.3025621}, {'y': -48.844775, 'x': -26.2987918}, {'y': -48.8447428, 'x': -26.2990322}, {'y': -48.8448071, 'x': -26.3016388}, {'y': -48.8447589, 'x': -26.3012012}, {'y': -48.8423234, 'x': -26.3005183}, {'y': -48.842243, 'x': -26.3006962}, {'y': -48.8422993, 'x': -26.300612}], 
[{'y': -48.8304949, 'x': -26.33423}, {'y': -48.8307631, 'x': -26.3342829}, {'y': -48.8306236, 'x': -26.3342589}, {'y': -48.8307631, 'x': -26.3342829}, {'y': -48.8349903, 'x': -26.3336915}, {'y': -48.8350976, 'x': -26.3345954}, {'y': -48.8350976, 'x': -26.3345954}, {'y': -48.8409448, 'x': -26.3208157}, {'y': -48.8450003, 'x': -26.3218447}, {'y': -48.8450754, 'x': -26.3199935}, {'y': -48.8451827, 'x': -26.3186424}, {'y': -48.8420606, 'x': -26.3181423}, {'y': -48.8409448, 'x': -26.3208157}, {'y': -48.8451827, 'x': -26.3186424}, {'y': -48.8450003, 'x': -26.3218447}, {'y': -48.8449895, 'x': -26.320258}, {'y': -48.8450271, 'x': -26.3215129}, {'y': -48.843348, 'x': -26.324167}, {'y': -48.8434875, 'x': -26.3241719}, {'y': -48.8483799, 'x': -26.3031296}, {'y': -48.8481438, 'x': -26.3034277}, {'y': -48.8484067, 'x': -26.3030719}, {'y': -48.8483799, 'x': -26.3031296}, {'y': -48.8481438, 'x': -26.3034277}, {'y': -48.8481975, 'x': -26.3032787}, {'y': -48.8444424, 'x': -26.3016292}, {'y': -48.8466257, 'x': -26.3015282}, {'y': -48.8499892, 'x': -26.3013791}, {'y': -48.8454455, 'x': -26.302793}, {'y': -48.8442814, 'x': -26.3026102}, {'y': -48.8448662, 'x': -26.3025766}, {'y': -48.8450485, 'x': -26.3025621}, {'y': -48.844775, 'x': -26.2987918}, {'y': -48.8447428, 'x': -26.2990322}, {'y': -48.8448071, 'x': -26.3016388}, {'y': -48.8447589, 'x': -26.3012012}, {'y': -48.8423234, 'x': -26.3005183}, {'y': -48.842243, 'x': -26.3006962}, {'y': -48.8422993, 'x': -26.300612}], 
[{'y': -48.8304949, 'x': -26.33423}, {'y': -48.8307631, 'x': -26.3342829}, {'y': -48.8306236, 'x': -26.3342589}, {'y': -48.8307631, 'x': -26.3342829}, {'y': -48.8349903, 'x': -26.3336915}, {'y': -48.8350976, 'x': -26.3345954}, {'y': -48.8350976, 'x': -26.3345954}, {'y': -48.8409448, 'x': -26.3208157}, {'y': -48.8450003, 'x': -26.3218447}, {'y': -48.8450754, 'x': -26.3199935}, {'y': -48.8451827, 'x': -26.3186424}, {'y': -48.8420606, 'x': -26.3181423}, {'y': -48.8409448, 'x': -26.3208157}, {'y': -48.8451827, 'x': -26.3186424}, {'y': -48.8450003, 'x': -26.3218447}, {'y': -48.8449895, 'x': -26.320258}, {'y': -48.8450271, 'x': -26.3215129}, {'y': -48.843348, 'x': -26.324167}, {'y': -48.8434875, 'x': -26.3241719}, {'y': -48.8483799, 'x': -26.3031296}, {'y': -48.8481438, 'x': -26.3034277}, {'y': -48.8484067, 'x': -26.3030719}, {'y': -48.8483799, 'x': -26.3031296}, {'y': -48.8481438, 'x': -26.3034277}, {'y': -48.8481975, 'x': -26.3032787}, {'y': -48.8444424, 'x': -26.3016292}, {'y': -48.8466257, 'x': -26.3015282}, {'y': -48.8499892, 'x': -26.3013791}, {'y': -48.8454455, 'x': -26.302793}, {'y': -48.8442814, 'x': -26.3026102}, {'y': -48.8448662, 'x': -26.3025766}, {'y': -48.8450485, 'x': -26.3025621}, {'y': -48.844775, 'x': -26.2987918}, {'y': -48.8447428, 'x': -26.2990322}, {'y': -48.8448071, 'x': -26.3016388}, {'y': -48.8447589, 'x': -26.3012012}, {'y': -48.8423234, 'x': -26.3005183}, {'y': -48.842243, 'x': -26.3006962}, {'y': -48.8422993, 'x': -26.300612}], 
[{'y': -48.8304949, 'x': -26.33423}, {'y': -48.8307631, 'x': -26.3342829}, {'y': -48.8306236, 'x': -26.3342589}, {'y': -48.8307631, 'x': -26.3342829}, {'y': -48.8349903, 'x': -26.3336915}, {'y': -48.8350976, 'x': -26.3345954}, {'y': -48.8350976, 'x': -26.3345954}, {'y': -48.8409448, 'x': -26.3208157}, {'y': -48.8450003, 'x': -26.3218447}, {'y': -48.8450754, 'x': -26.3199935}, {'y': -48.8451827, 'x': -26.3186424}, {'y': -48.8420606, 'x': -26.3181423}, {'y': -48.8409448, 'x': -26.3208157}, {'y': -48.8451827, 'x': -26.3186424}, {'y': -48.8450003, 'x': -26.3218447}, {'y': -48.8449895, 'x': -26.320258}, {'y': -48.8450271, 'x': -26.3215129}, {'y': -48.843348, 'x': -26.324167}, {'y': -48.8434875, 'x': -26.3241719}, {'y': -48.8483799, 'x': -26.3031296}, {'y': -48.8481438, 'x': -26.3034277}, {'y': -48.8484067, 'x': -26.3030719}, {'y': -48.8483799, 'x': -26.3031296}, {'y': -48.8481438, 'x': -26.3034277}, {'y': -48.8481975, 'x': -26.3032787}, {'y': -48.8444424, 'x': -26.3016292}, {'y': -48.8466257, 'x': -26.3015282}, {'y': -48.8499892, 'x': -26.3013791}, {'y': -48.8454455, 'x': -26.302793}, {'y': -48.8442814, 'x': -26.3026102}, {'y': -48.8448662, 'x': -26.3025766}, {'y': -48.8450485, 'x': -26.3025621}, {'y': -48.844775, 'x': -26.2987918}, {'y': -48.8447428, 'x': -26.2990322}, {'y': -48.8448071, 'x': -26.3016388}, {'y': -48.8447589, 'x': -26.3012012}, {'y': -48.8423234, 'x': -26.3005183}, {'y': -48.842243, 'x': -26.3006962}, {'y': -48.8422993, 'x': -26.300612}], 
[{'y': -48.8304949, 'x': -26.33423}, {'y': -48.8307631, 'x': -26.3342829}, {'y': -48.8306236, 'x': -26.3342589}, {'y': -48.8307631, 'x': -26.3342829}, {'y': -48.8349903, 'x': -26.3336915}, {'y': -48.8350976, 'x': -26.3345954}, {'y': -48.8350976, 'x': -26.3345954}, {'y': -48.8409448, 'x': -26.3208157}, {'y': -48.8450003, 'x': -26.3218447}, {'y': -48.8450754, 'x': -26.3199935}, {'y': -48.8451827, 'x': -26.3186424}, {'y': -48.8420606, 'x': -26.3181423}, {'y': -48.8409448, 'x': -26.3208157}, {'y': -48.8451827, 'x': -26.3186424}, {'y': -48.8450003, 'x': -26.3218447}, {'y': -48.8449895, 'x': -26.320258}, {'y': -48.8450271, 'x': -26.3215129}, {'y': -48.843348, 'x': -26.324167}, {'y': -48.8434875, 'x': -26.3241719}, {'y': -48.8483799, 'x': -26.3031296}, {'y': -48.8481438, 'x': -26.3034277}, {'y': -48.8484067, 'x': -26.3030719}, {'y': -48.8483799, 'x': -26.3031296}, {'y': -48.8481438, 'x': -26.3034277}, {'y': -48.8481975, 'x': -26.3032787}, {'y': -48.8444424, 'x': -26.3016292}, {'y': -48.8466257, 'x': -26.3015282}, {'y': -48.8499892, 'x': -26.3013791}, {'y': -48.8454455, 'x': -26.302793}, {'y': -48.8442814, 'x': -26.3026102}, {'y': -48.8448662, 'x': -26.3025766}, {'y': -48.8450485, 'x': -26.3025621}, {'y': -48.844775, 'x': -26.2987918}, {'y': -48.8447428, 'x': -26.2990322}, {'y': -48.8448071, 'x': -26.3016388}, {'y': -48.8447589, 'x': -26.3012012}, {'y': -48.8423234, 'x': -26.3005183}, {'y': -48.842243, 'x': -26.3006962}, {'y': -48.8422993, 'x': -26.300612}], 
[{'y': -48.8304949, 'x': -26.33423}, {'y': -48.8307631, 'x': -26.3342829}, {'y': -48.8306236, 'x': -26.3342589}, {'y': -48.8307631, 'x': -26.3342829}, {'y': -48.8349903, 'x': -26.3336915}, {'y': -48.8350976, 'x': -26.3345954}, {'y': -48.8350976, 'x': -26.3345954}, {'y': -48.8409448, 'x': -26.3208157}, {'y': -48.8450003, 'x': -26.3218447}, {'y': -48.8450754, 'x': -26.3199935}, {'y': -48.8451827, 'x': -26.3186424}, {'y': -48.8420606, 'x': -26.3181423}, {'y': -48.8409448, 'x': -26.3208157}, {'y': -48.8451827, 'x': -26.3186424}, {'y': -48.8450003, 'x': -26.3218447}, {'y': -48.8449895, 'x': -26.320258}, {'y': -48.8450271, 'x': -26.3215129}, {'y': -48.843348, 'x': -26.324167}, {'y': -48.8434875, 'x': -26.3241719}, {'y': -48.8483799, 'x': -26.3031296}, {'y': -48.8481438, 'x': -26.3034277}, {'y': -48.8484067, 'x': -26.3030719}, {'y': -48.8483799, 'x': -26.3031296}, {'y': -48.8481438, 'x': -26.3034277}, {'y': -48.8481975, 'x': -26.3032787}, {'y': -48.8444424, 'x': -26.3016292}, {'y': -48.8466257, 'x': -26.3015282}, {'y': -48.8499892, 'x': -26.3013791}, {'y': -48.8454455, 'x': -26.302793}, {'y': -48.8442814, 'x': -26.3026102}, {'y': -48.8448662, 'x': -26.3025766}, {'y': -48.8450485, 'x': -26.3025621}, {'y': -48.844775, 'x': -26.2987918}, {'y': -48.8447428, 'x': -26.2990322}, {'y': -48.8448071, 'x': -26.3016388}, {'y': -48.8447589, 'x': -26.3012012}, {'y': -48.8423234, 'x': -26.3005183}, {'y': -48.842243, 'x': -26.3006962}, {'y': -48.8422993, 'x': -26.300612}], 
[{'y': -48.8304949, 'x': -26.33423}, {'y': -48.8307631, 'x': -26.3342829}, {'y': -48.8306236, 'x': -26.3342589}, {'y': -48.8307631, 'x': -26.3342829}, {'y': -48.8349903, 'x': -26.3336915}, {'y': -48.8350976, 'x': -26.3345954}, {'y': -48.8350976, 'x': -26.3345954}, {'y': -48.8409448, 'x': -26.3208157}, {'y': -48.8450003, 'x': -26.3218447}, {'y': -48.8450754, 'x': -26.3199935}, {'y': -48.8451827, 'x': -26.3186424}, {'y': -48.8420606, 'x': -26.3181423}, {'y': -48.8409448, 'x': -26.3208157}, {'y': -48.8451827, 'x': -26.3186424}, {'y': -48.8450003, 'x': -26.3218447}, {'y': -48.8449895, 'x': -26.320258}, {'y': -48.8450271, 'x': -26.3215129}, {'y': -48.843348, 'x': -26.324167}, {'y': -48.8434875, 'x': -26.3241719}, {'y': -48.8483799, 'x': -26.3031296}, {'y': -48.8481438, 'x': -26.3034277}, {'y': -48.8484067, 'x': -26.3030719}, {'y': -48.8483799, 'x': -26.3031296}, {'y': -48.8481438, 'x': -26.3034277}, {'y': -48.8481975, 'x': -26.3032787}, {'y': -48.8444424, 'x': -26.3016292}, {'y': -48.8466257, 'x': -26.3015282}, {'y': -48.8499892, 'x': -26.3013791}, {'y': -48.8454455, 'x': -26.302793}, {'y': -48.8442814, 'x': -26.3026102}, {'y': -48.8448662, 'x': -26.3025766}, {'y': -48.8450485, 'x': -26.3025621}, {'y': -48.844775, 'x': -26.2987918}, {'y': -48.8447428, 'x': -26.2990322}, {'y': -48.8448071, 'x': -26.3016388}, {'y': -48.8447589, 'x': -26.3012012}, {'y': -48.8423234, 'x': -26.3005183}, {'y': -48.842243, 'x': -26.3006962}, {'y': -48.8422993, 'x': -26.300612}], 
[{'y': -48.8304949, 'x': -26.33423}, {'y': -48.8307631, 'x': -26.3342829}, {'y': -48.8306236, 'x': -26.3342589}, {'y': -48.8307631, 'x': -26.3342829}, {'y': -48.8349903, 'x': -26.3336915}, {'y': -48.8350976, 'x': -26.3345954}, {'y': -48.8350976, 'x': -26.3345954}, {'y': -48.8409448, 'x': -26.3208157}, {'y': -48.8450003, 'x': -26.3218447}, {'y': -48.8450754, 'x': -26.3199935}, {'y': -48.8451827, 'x': -26.3186424}, {'y': -48.8420606, 'x': -26.3181423}, {'y': -48.8409448, 'x': -26.3208157}, {'y': -48.8451827, 'x': -26.3186424}, {'y': -48.8450003, 'x': -26.3218447}, {'y': -48.8449895, 'x': -26.320258}, {'y': -48.8450271, 'x': -26.3215129}, {'y': -48.843348, 'x': -26.324167}, {'y': -48.8434875, 'x': -26.3241719}, {'y': -48.8483799, 'x': -26.3031296}, {'y': -48.8481438, 'x': -26.3034277}, {'y': -48.8484067, 'x': -26.3030719}, {'y': -48.8483799, 'x': -26.3031296}, {'y': -48.8481438, 'x': -26.3034277}, {'y': -48.8481975, 'x': -26.3032787}, {'y': -48.8444424, 'x': -26.3016292}, {'y': -48.8466257, 'x': -26.3015282}, {'y': -48.8499892, 'x': -26.3013791}, {'y': -48.8454455, 'x': -26.302793}, {'y': -48.8442814, 'x': -26.3026102}, {'y': -48.8448662, 'x': -26.3025766}, {'y': -48.8450485, 'x': -26.3025621}, {'y': -48.844775, 'x': -26.2987918}, {'y': -48.8447428, 'x': -26.2990322}, {'y': -48.8448071, 'x': -26.3016388}, {'y': -48.8447589, 'x': -26.3012012}, {'y': -48.8423234, 'x': -26.3005183}, {'y': -48.842243, 'x': -26.3006962}, {'y': -48.8422993, 'x': -26.300612}], 
[{'y': -48.8304949, 'x': -26.33423}, {'y': -48.8307631, 'x': -26.3342829}, {'y': -48.8306236, 'x': -26.3342589}, {'y': -48.8307631, 'x': -26.3342829}, {'y': -48.8349903, 'x': -26.3336915}, {'y': -48.8350976, 'x': -26.3345954}, {'y': -48.8350976, 'x': -26.3345954}, {'y': -48.8409448, 'x': -26.3208157}, {'y': -48.8450003, 'x': -26.3218447}, {'y': -48.8450754, 'x': -26.3199935}, {'y': -48.8451827, 'x': -26.3186424}, {'y': -48.8420606, 'x': -26.3181423}, {'y': -48.8409448, 'x': -26.3208157}, {'y': -48.8451827, 'x': -26.3186424}, {'y': -48.8450003, 'x': -26.3218447}, {'y': -48.8449895, 'x': -26.320258}, {'y': -48.8450271, 'x': -26.3215129}, {'y': -48.843348, 'x': -26.324167}, {'y': -48.8434875, 'x': -26.3241719}, {'y': -48.8483799, 'x': -26.3031296}, {'y': -48.8481438, 'x': -26.3034277}, {'y': -48.8484067, 'x': -26.3030719}, {'y': -48.8483799, 'x': -26.3031296}, {'y': -48.8481438, 'x': -26.3034277}, {'y': -48.8481975, 'x': -26.3032787}, {'y': -48.8444424, 'x': -26.3016292}, {'y': -48.8466257, 'x': -26.3015282}, {'y': -48.8499892, 'x': -26.3013791}, {'y': -48.8454455, 'x': -26.302793}, {'y': -48.8442814, 'x': -26.3026102}, {'y': -48.8448662, 'x': -26.3025766}, {'y': -48.8450485, 'x': -26.3025621}, {'y': -48.844775, 'x': -26.2987918}, {'y': -48.8447428, 'x': -26.2990322}, {'y': -48.8448071, 'x': -26.3016388}, {'y': -48.8447589, 'x': -26.3012012}, {'y': -48.8423234, 'x': -26.3005183}, {'y': -48.842243, 'x': -26.3006962}, {'y': -48.8422993, 'x': -26.300612}], 
[{'y': -48.8304949, 'x': -26.33423}, {'y': -48.8307631, 'x': -26.3342829}, {'y': -48.8306236, 'x': -26.3342589}, {'y': -48.8307631, 'x': -26.3342829}, {'y': -48.8349903, 'x': -26.3336915}, {'y': -48.8350976, 'x': -26.3345954}, {'y': -48.8350976, 'x': -26.3345954}, {'y': -48.8409448, 'x': -26.3208157}, {'y': -48.8450003, 'x': -26.3218447}, {'y': -48.8450754, 'x': -26.3199935}, {'y': -48.8451827, 'x': -26.3186424}, {'y': -48.8420606, 'x': -26.3181423}, {'y': -48.8409448, 'x': -26.3208157}, {'y': -48.8451827, 'x': -26.3186424}, {'y': -48.8450003, 'x': -26.3218447}, {'y': -48.8449895, 'x': -26.320258}, {'y': -48.8450271, 'x': -26.3215129}, {'y': -48.843348, 'x': -26.324167}, {'y': -48.8434875, 'x': -26.3241719}, {'y': -48.8483799, 'x': -26.3031296}, {'y': -48.8481438, 'x': -26.3034277}, {'y': -48.8484067, 'x': -26.3030719}, {'y': -48.8483799, 'x': -26.3031296}, {'y': -48.8481438, 'x': -26.3034277}, {'y': -48.8481975, 'x': -26.3032787}, {'y': -48.8444424, 'x': -26.3016292}, {'y': -48.8466257, 'x': -26.3015282}, {'y': -48.8499892, 'x': -26.3013791}, {'y': -48.8454455, 'x': -26.302793}, {'y': -48.8442814, 'x': -26.3026102}, {'y': -48.8448662, 'x': -26.3025766}, {'y': -48.8450485, 'x': -26.3025621}, {'y': -48.844775, 'x': -26.2987918}, {'y': -48.8447428, 'x': -26.2990322}, {'y': -48.8448071, 'x': -26.3016388}, {'y': -48.8447589, 'x': -26.3012012}, {'y': -48.8423234, 'x': -26.3005183}, {'y': -48.842243, 'x': -26.3006962}, {'y': -48.8422993, 'x': -26.300612}], 
[{'y': -48.8304949, 'x': -26.33423}, {'y': -48.8307631, 'x': -26.3342829}, {'y': -48.8306236, 'x': -26.3342589}, {'y': -48.8307631, 'x': -26.3342829}, {'y': -48.8349903, 'x': -26.3336915}, {'y': -48.8350976, 'x': -26.3345954}, {'y': -48.8350976, 'x': -26.3345954}, {'y': -48.8409448, 'x': -26.3208157}, {'y': -48.8450003, 'x': -26.3218447}, {'y': -48.8450754, 'x': -26.3199935}, {'y': -48.8451827, 'x': -26.3186424}, {'y': -48.8420606, 'x': -26.3181423}, {'y': -48.8409448, 'x': -26.3208157}, {'y': -48.8451827, 'x': -26.3186424}, {'y': -48.8450003, 'x': -26.3218447}, {'y': -48.8449895, 'x': -26.320258}, {'y': -48.8450271, 'x': -26.3215129}, {'y': -48.843348, 'x': -26.324167}, {'y': -48.8434875, 'x': -26.3241719}, {'y': -48.8483799, 'x': -26.3031296}, {'y': -48.8481438, 'x': -26.3034277}, {'y': -48.8484067, 'x': -26.3030719}, {'y': -48.8483799, 'x': -26.3031296}, {'y': -48.8481438, 'x': -26.3034277}, {'y': -48.8481975, 'x': -26.3032787}, {'y': -48.8444424, 'x': -26.3016292}, {'y': -48.8466257, 'x': -26.3015282}, {'y': -48.8499892, 'x': -26.3013791}, {'y': -48.8454455, 'x': -26.302793}, {'y': -48.8442814, 'x': -26.3026102}, {'y': -48.8448662, 'x': -26.3025766}, {'y': -48.8450485, 'x': -26.3025621}, {'y': -48.844775, 'x': -26.2987918}, {'y': -48.8447428, 'x': -26.2990322}, {'y': -48.8448071, 'x': -26.3016388}, {'y': -48.8447589, 'x': -26.3012012}, {'y': -48.8423234, 'x': -26.3005183}, {'y': -48.842243, 'x': -26.3006962}, {'y': -48.8422993, 'x': -26.300612}], 
[{'y': -48.8304949, 'x': -26.33423}, {'y': -48.8307631, 'x': -26.3342829}, {'y': -48.8306236, 'x': -26.3342589}, {'y': -48.8307631, 'x': -26.3342829}, {'y': -48.8349903, 'x': -26.3336915}, {'y': -48.8350976, 'x': -26.3345954}, {'y': -48.8350976, 'x': -26.3345954}, {'y': -48.8409448, 'x': -26.3208157}, {'y': -48.8450003, 'x': -26.3218447}, {'y': -48.8450754, 'x': -26.3199935}, {'y': -48.8451827, 'x': -26.3186424}, {'y': -48.8420606, 'x': -26.3181423}, {'y': -48.8409448, 'x': -26.3208157}, {'y': -48.8451827, 'x': -26.3186424}, {'y': -48.8450003, 'x': -26.3218447}, {'y': -48.8449895, 'x': -26.320258}, {'y': -48.8450271, 'x': -26.3215129}, {'y': -48.843348, 'x': -26.324167}, {'y': -48.8434875, 'x': -26.3241719}, {'y': -48.8483799, 'x': -26.3031296}, {'y': -48.8481438, 'x': -26.3034277}, {'y': -48.8484067, 'x': -26.3030719}, {'y': -48.8483799, 'x': -26.3031296}, {'y': -48.8481438, 'x': -26.3034277}, {'y': -48.8481975, 'x': -26.3032787}, {'y': -48.8444424, 'x': -26.3016292}, {'y': -48.8466257, 'x': -26.3015282}, {'y': -48.8499892, 'x': -26.3013791}, {'y': -48.8454455, 'x': -26.302793}, {'y': -48.8442814, 'x': -26.3026102}, {'y': -48.8448662, 'x': -26.3025766}, {'y': -48.8450485, 'x': -26.3025621}, {'y': -48.844775, 'x': -26.2987918}, {'y': -48.8447428, 'x': -26.2990322}, {'y': -48.8448071, 'x': -26.3016388}, {'y': -48.8447589, 'x': -26.3012012}, {'y': -48.8423234, 'x': -26.3005183}, {'y': -48.842243, 'x': -26.3006962}, {'y': -48.8422993, 'x': -26.300612}], 
[{'y': -48.8304949, 'x': -26.33423}, {'y': -48.8307631, 'x': -26.3342829}, {'y': -48.8306236, 'x': -26.3342589}, {'y': -48.8307631, 'x': -26.3342829}, {'y': -48.8349903, 'x': -26.3336915}, {'y': -48.8350976, 'x': -26.3345954}, {'y': -48.8350976, 'x': -26.3345954}, {'y': -48.8409448, 'x': -26.3208157}, {'y': -48.8450003, 'x': -26.3218447}, {'y': -48.8450754, 'x': -26.3199935}, {'y': -48.8451827, 'x': -26.3186424}, {'y': -48.8420606, 'x': -26.3181423}, {'y': -48.8409448, 'x': -26.3208157}, {'y': -48.8451827, 'x': -26.3186424}, {'y': -48.8450003, 'x': -26.3218447}, {'y': -48.8449895, 'x': -26.320258}, {'y': -48.8450271, 'x': -26.3215129}, {'y': -48.843348, 'x': -26.324167}, {'y': -48.8434875, 'x': -26.3241719}, {'y': -48.8483799, 'x': -26.3031296}, {'y': -48.8481438, 'x': -26.3034277}, {'y': -48.8484067, 'x': -26.3030719}, {'y': -48.8483799, 'x': -26.3031296}, {'y': -48.8481438, 'x': -26.3034277}, {'y': -48.8481975, 'x': -26.3032787}, {'y': -48.8444424, 'x': -26.3016292}, {'y': -48.8466257, 'x': -26.3015282}, {'y': -48.8499892, 'x': -26.3013791}, {'y': -48.8454455, 'x': -26.302793}, {'y': -48.8442814, 'x': -26.3026102}, {'y': -48.8448662, 'x': -26.3025766}, {'y': -48.8450485, 'x': -26.3025621}, {'y': -48.844775, 'x': -26.2987918}, {'y': -48.8447428, 'x': -26.2990322}, {'y': -48.8448071, 'x': -26.3016388}, {'y': -48.8447589, 'x': -26.3012012}, {'y': -48.8423234, 'x': -26.3005183}, {'y': -48.842243, 'x': -26.3006962}, {'y': -48.8422993, 'x': -26.300612}], 
[{'y': -48.8304949, 'x': -26.33423}, {'y': -48.8307631, 'x': -26.3342829}, {'y': -48.8306236, 'x': -26.3342589}, {'y': -48.8307631, 'x': -26.3342829}, {'y': -48.8349903, 'x': -26.3336915}, {'y': -48.8350976, 'x': -26.3345954}, {'y': -48.8350976, 'x': -26.3345954}, {'y': -48.8409448, 'x': -26.3208157}, {'y': -48.8450003, 'x': -26.3218447}, {'y': -48.8450754, 'x': -26.3199935}, {'y': -48.8451827, 'x': -26.3186424}, {'y': -48.8420606, 'x': -26.3181423}, {'y': -48.8409448, 'x': -26.3208157}, {'y': -48.8451827, 'x': -26.3186424}, {'y': -48.8450003, 'x': -26.3218447}, {'y': -48.8449895, 'x': -26.320258}, {'y': -48.8450271, 'x': -26.3215129}, {'y': -48.843348, 'x': -26.324167}, {'y': -48.8434875, 'x': -26.3241719}, {'y': -48.8483799, 'x': -26.3031296}, {'y': -48.8481438, 'x': -26.3034277}, {'y': -48.8484067, 'x': -26.3030719}, {'y': -48.8483799, 'x': -26.3031296}, {'y': -48.8481438, 'x': -26.3034277}, {'y': -48.8481975, 'x': -26.3032787}, {'y': -48.8444424, 'x': -26.3016292}, {'y': -48.8466257, 'x': -26.3015282}, {'y': -48.8499892, 'x': -26.3013791}, {'y': -48.8454455, 'x': -26.302793}, {'y': -48.8442814, 'x': -26.3026102}, {'y': -48.8448662, 'x': -26.3025766}, {'y': -48.8450485, 'x': -26.3025621}, {'y': -48.844775, 'x': -26.2987918}, {'y': -48.8447428, 'x': -26.2990322}, {'y': -48.8448071, 'x': -26.3016388}, {'y': -48.8447589, 'x': -26.3012012}, {'y': -48.8423234, 'x': -26.3005183}, {'y': -48.842243, 'x': -26.3006962}, {'y': -48.8422993, 'x': -26.300612}], 
[{'y': -48.8304949, 'x': -26.33423}, {'y': -48.8307631, 'x': -26.3342829}, {'y': -48.8306236, 'x': -26.3342589}, {'y': -48.8307631, 'x': -26.3342829}, {'y': -48.8349903, 'x': -26.3336915}, {'y': -48.8350976, 'x': -26.3345954}, {'y': -48.8350976, 'x': -26.3345954}, {'y': -48.8409448, 'x': -26.3208157}, {'y': -48.8450003, 'x': -26.3218447}, {'y': -48.8450754, 'x': -26.3199935}, {'y': -48.8451827, 'x': -26.3186424}, {'y': -48.8420606, 'x': -26.3181423}, {'y': -48.8409448, 'x': -26.3208157}, {'y': -48.8451827, 'x': -26.3186424}, {'y': -48.8450003, 'x': -26.3218447}, {'y': -48.8449895, 'x': -26.320258}, {'y': -48.8450271, 'x': -26.3215129}, {'y': -48.843348, 'x': -26.324167}, {'y': -48.8434875, 'x': -26.3241719}, {'y': -48.8483799, 'x': -26.3031296}, {'y': -48.8481438, 'x': -26.3034277}, {'y': -48.8484067, 'x': -26.3030719}, {'y': -48.8483799, 'x': -26.3031296}, {'y': -48.8481438, 'x': -26.3034277}, {'y': -48.8481975, 'x': -26.3032787}, {'y': -48.8444424, 'x': -26.3016292}, {'y': -48.8466257, 'x': -26.3015282}, {'y': -48.8499892, 'x': -26.3013791}, {'y': -48.8454455, 'x': -26.302793}, {'y': -48.8442814, 'x': -26.3026102}, {'y': -48.8448662, 'x': -26.3025766}, {'y': -48.8450485, 'x': -26.3025621}, {'y': -48.844775, 'x': -26.2987918}, {'y': -48.8447428, 'x': -26.2990322}, {'y': -48.8448071, 'x': -26.3016388}, {'y': -48.8447589, 'x': -26.3012012}, {'y': -48.8423234, 'x': -26.3005183}, {'y': -48.842243, 'x': -26.3006962}, {'y': -48.8422993, 'x': -26.300612}], 
[{'y': -48.8304949, 'x': -26.33423}, {'y': -48.8307631, 'x': -26.3342829}, {'y': -48.8306236, 'x': -26.3342589}, {'y': -48.8307631, 'x': -26.3342829}, {'y': -48.8349903, 'x': -26.3336915}, {'y': -48.8350976, 'x': -26.3345954}, {'y': -48.8350976, 'x': -26.3345954}, {'y': -48.8409448, 'x': -26.3208157}, {'y': -48.8450003, 'x': -26.3218447}, {'y': -48.8450754, 'x': -26.3199935}, {'y': -48.8451827, 'x': -26.3186424}, {'y': -48.8420606, 'x': -26.3181423}, {'y': -48.8409448, 'x': -26.3208157}, {'y': -48.8451827, 'x': -26.3186424}, {'y': -48.8450003, 'x': -26.3218447}, {'y': -48.8449895, 'x': -26.320258}, {'y': -48.8450271, 'x': -26.3215129}, {'y': -48.843348, 'x': -26.324167}, {'y': -48.8434875, 'x': -26.3241719}, {'y': -48.8483799, 'x': -26.3031296}, {'y': -48.8481438, 'x': -26.3034277}, {'y': -48.8484067, 'x': -26.3030719}, {'y': -48.8483799, 'x': -26.3031296}, {'y': -48.8481438, 'x': -26.3034277}, {'y': -48.8481975, 'x': -26.3032787}, {'y': -48.8444424, 'x': -26.3016292}, {'y': -48.8466257, 'x': -26.3015282}, {'y': -48.8499892, 'x': -26.3013791}, {'y': -48.8454455, 'x': -26.302793}, {'y': -48.8442814, 'x': -26.3026102}, {'y': -48.8448662, 'x': -26.3025766}, {'y': -48.8450485, 'x': -26.3025621}, {'y': -48.844775, 'x': -26.2987918}, {'y': -48.8447428, 'x': -26.2990322}, {'y': -48.8448071, 'x': -26.3016388}, {'y': -48.8447589, 'x': -26.3012012}, {'y': -48.8423234, 'x': -26.3005183}, {'y': -48.842243, 'x': -26.3006962}, {'y': -48.8422993, 'x': -26.300612}], 
[{'y': -48.8304949, 'x': -26.33423}, {'y': -48.8307631, 'x': -26.3342829}, {'y': -48.8306236, 'x': -26.3342589}, {'y': -48.8307631, 'x': -26.3342829}, {'y': -48.8349903, 'x': -26.3336915}, {'y': -48.8350976, 'x': -26.3345954}, {'y': -48.8350976, 'x': -26.3345954}, {'y': -48.8409448, 'x': -26.3208157}, {'y': -48.8450003, 'x': -26.3218447}, {'y': -48.8450754, 'x': -26.3199935}, {'y': -48.8451827, 'x': -26.3186424}, {'y': -48.8420606, 'x': -26.3181423}, {'y': -48.8409448, 'x': -26.3208157}, {'y': -48.8451827, 'x': -26.3186424}, {'y': -48.8450003, 'x': -26.3218447}, {'y': -48.8449895, 'x': -26.320258}, {'y': -48.8450271, 'x': -26.3215129}, {'y': -48.843348, 'x': -26.324167}, {'y': -48.8434875, 'x': -26.3241719}, {'y': -48.8483799, 'x': -26.3031296}, {'y': -48.8481438, 'x': -26.3034277}, {'y': -48.8484067, 'x': -26.3030719}, {'y': -48.8483799, 'x': -26.3031296}, {'y': -48.8481438, 'x': -26.3034277}, {'y': -48.8481975, 'x': -26.3032787}, {'y': -48.8444424, 'x': -26.3016292}, {'y': -48.8466257, 'x': -26.3015282}, {'y': -48.8499892, 'x': -26.3013791}, {'y': -48.8454455, 'x': -26.302793}, {'y': -48.8442814, 'x': -26.3026102}, {'y': -48.8448662, 'x': -26.3025766}, {'y': -48.8450485, 'x': -26.3025621}, {'y': -48.844775, 'x': -26.2987918}, {'y': -48.8447428, 'x': -26.2990322}, {'y': -48.8448071, 'x': -26.3016388}, {'y': -48.8447589, 'x': -26.3012012}, {'y': -48.8423234, 'x': -26.3005183}, {'y': -48.842243, 'x': -26.3006962}, {'y': -48.8422993, 'x': -26.300612}], 
[{'y': -48.8304949, 'x': -26.33423}, {'y': -48.8307631, 'x': -26.3342829}, {'y': -48.8306236, 'x': -26.3342589}, {'y': -48.8307631, 'x': -26.3342829}, {'y': -48.8349903, 'x': -26.3336915}, {'y': -48.8350976, 'x': -26.3345954}, {'y': -48.8350976, 'x': -26.3345954}, {'y': -48.8409448, 'x': -26.3208157}, {'y': -48.8450003, 'x': -26.3218447}, {'y': -48.8450754, 'x': -26.3199935}, {'y': -48.8451827, 'x': -26.3186424}, {'y': -48.8420606, 'x': -26.3181423}, {'y': -48.8409448, 'x': -26.3208157}, {'y': -48.8451827, 'x': -26.3186424}, {'y': -48.8450003, 'x': -26.3218447}, {'y': -48.8449895, 'x': -26.320258}, {'y': -48.8450271, 'x': -26.3215129}, {'y': -48.843348, 'x': -26.324167}, {'y': -48.8434875, 'x': -26.3241719}, {'y': -48.8483799, 'x': -26.3031296}, {'y': -48.8481438, 'x': -26.3034277}, {'y': -48.8484067, 'x': -26.3030719}, {'y': -48.8483799, 'x': -26.3031296}, {'y': -48.8481438, 'x': -26.3034277}, {'y': -48.8481975, 'x': -26.3032787}, {'y': -48.8444424, 'x': -26.3016292}, {'y': -48.8466257, 'x': -26.3015282}, {'y': -48.8499892, 'x': -26.3013791}, {'y': -48.8454455, 'x': -26.302793}, {'y': -48.8442814, 'x': -26.3026102}, {'y': -48.8448662, 'x': -26.3025766}, {'y': -48.8450485, 'x': -26.3025621}, {'y': -48.844775, 'x': -26.2987918}, {'y': -48.8447428, 'x': -26.2990322}, {'y': -48.8448071, 'x': -26.3016388}, {'y': -48.8447589, 'x': -26.3012012}, {'y': -48.8423234, 'x': -26.3005183}, {'y': -48.842243, 'x': -26.3006962}, {'y': -48.8422993, 'x': -26.300612}], 
[{'y': -48.8304949, 'x': -26.33423}, {'y': -48.8307631, 'x': -26.3342829}, {'y': -48.8306236, 'x': -26.3342589}, {'y': -48.8307631, 'x': -26.3342829}, {'y': -48.8349903, 'x': -26.3336915}, {'y': -48.8350976, 'x': -26.3345954}, {'y': -48.8350976, 'x': -26.3345954}, {'y': -48.8409448, 'x': -26.3208157}, {'y': -48.8450003, 'x': -26.3218447}, {'y': -48.8450754, 'x': -26.3199935}, {'y': -48.8451827, 'x': -26.3186424}, {'y': -48.8420606, 'x': -26.3181423}, {'y': -48.8409448, 'x': -26.3208157}, {'y': -48.8451827, 'x': -26.3186424}, {'y': -48.8450003, 'x': -26.3218447}, {'y': -48.8449895, 'x': -26.320258}, {'y': -48.8450271, 'x': -26.3215129}, {'y': -48.843348, 'x': -26.324167}, {'y': -48.8434875, 'x': -26.3241719}, {'y': -48.8483799, 'x': -26.3031296}, {'y': -48.8481438, 'x': -26.3034277}, {'y': -48.8484067, 'x': -26.3030719}, {'y': -48.8483799, 'x': -26.3031296}, {'y': -48.8481438, 'x': -26.3034277}, {'y': -48.8481975, 'x': -26.3032787}, {'y': -48.8444424, 'x': -26.3016292}, {'y': -48.8466257, 'x': -26.3015282}, {'y': -48.8499892, 'x': -26.3013791}, {'y': -48.8454455, 'x': -26.302793}, {'y': -48.8442814, 'x': -26.3026102}, {'y': -48.8448662, 'x': -26.3025766}, {'y': -48.8450485, 'x': -26.3025621}, {'y': -48.844775, 'x': -26.2987918}, {'y': -48.8447428, 'x': -26.2990322}, {'y': -48.8448071, 'x': -26.3016388}, {'y': -48.8447589, 'x': -26.3012012}, {'y': -48.8423234, 'x': -26.3005183}, {'y': -48.842243, 'x': -26.3006962}, {'y': -48.8422993, 'x': -26.300612}], 
[{'y': -48.8304949, 'x': -26.33423}, {'y': -48.8307631, 'x': -26.3342829}, {'y': -48.8306236, 'x': -26.3342589}, {'y': -48.8307631, 'x': -26.3342829}, {'y': -48.8349903, 'x': -26.3336915}, {'y': -48.8350976, 'x': -26.3345954}, {'y': -48.8350976, 'x': -26.3345954}, {'y': -48.8409448, 'x': -26.3208157}, {'y': -48.8450003, 'x': -26.3218447}, {'y': -48.8450754, 'x': -26.3199935}, {'y': -48.8451827, 'x': -26.3186424}, {'y': -48.8420606, 'x': -26.3181423}, {'y': -48.8409448, 'x': -26.3208157}, {'y': -48.8451827, 'x': -26.3186424}, {'y': -48.8450003, 'x': -26.3218447}, {'y': -48.8449895, 'x': -26.320258}, {'y': -48.8450271, 'x': -26.3215129}, {'y': -48.843348, 'x': -26.324167}, {'y': -48.8434875, 'x': -26.3241719}, {'y': -48.8483799, 'x': -26.3031296}, {'y': -48.8481438, 'x': -26.3034277}, {'y': -48.8484067, 'x': -26.3030719}, {'y': -48.8483799, 'x': -26.3031296}, {'y': -48.8481438, 'x': -26.3034277}, {'y': -48.8481975, 'x': -26.3032787}, {'y': -48.8444424, 'x': -26.3016292}, {'y': -48.8466257, 'x': -26.3015282}, {'y': -48.8499892, 'x': -26.3013791}, {'y': -48.8454455, 'x': -26.302793}, {'y': -48.8442814, 'x': -26.3026102}, {'y': -48.8448662, 'x': -26.3025766}, {'y': -48.8450485, 'x': -26.3025621}, {'y': -48.844775, 'x': -26.2987918}, {'y': -48.8447428, 'x': -26.2990322}, {'y': -48.8448071, 'x': -26.3016388}, {'y': -48.8447589, 'x': -26.3012012}, {'y': -48.8423234, 'x': -26.3005183}, {'y': -48.842243, 'x': -26.3006962}, {'y': -48.8422993, 'x': -26.300612}], 
[{'y': -48.8304949, 'x': -26.33423}, {'y': -48.8307631, 'x': -26.3342829}, {'y': -48.8306236, 'x': -26.3342589}, {'y': -48.8307631, 'x': -26.3342829}, {'y': -48.8349903, 'x': -26.3336915}, {'y': -48.8350976, 'x': -26.3345954}, {'y': -48.8350976, 'x': -26.3345954}, {'y': -48.8409448, 'x': -26.3208157}, {'y': -48.8450003, 'x': -26.3218447}, {'y': -48.8450754, 'x': -26.3199935}, {'y': -48.8451827, 'x': -26.3186424}, {'y': -48.8420606, 'x': -26.3181423}, {'y': -48.8409448, 'x': -26.3208157}, {'y': -48.8451827, 'x': -26.3186424}, {'y': -48.8450003, 'x': -26.3218447}, {'y': -48.8449895, 'x': -26.320258}, {'y': -48.8450271, 'x': -26.3215129}, {'y': -48.843348, 'x': -26.324167}, {'y': -48.8434875, 'x': -26.3241719}, {'y': -48.8483799, 'x': -26.3031296}, {'y': -48.8481438, 'x': -26.3034277}, {'y': -48.8484067, 'x': -26.3030719}, {'y': -48.8483799, 'x': -26.3031296}, {'y': -48.8481438, 'x': -26.3034277}, {'y': -48.8481975, 'x': -26.3032787}, {'y': -48.8444424, 'x': -26.3016292}, {'y': -48.8466257, 'x': -26.3015282}, {'y': -48.8499892, 'x': -26.3013791}, {'y': -48.8454455, 'x': -26.302793}, {'y': -48.8442814, 'x': -26.3026102}, {'y': -48.8448662, 'x': -26.3025766}, {'y': -48.8450485, 'x': -26.3025621}, {'y': -48.844775, 'x': -26.2987918}, {'y': -48.8447428, 'x': -26.2990322}, {'y': -48.8448071, 'x': -26.3016388}, {'y': -48.8447589, 'x': -26.3012012}, {'y': -48.8423234, 'x': -26.3005183}, {'y': -48.842243, 'x': -26.3006962}, {'y': -48.8422993, 'x': -26.300612}], 
[{'y': -48.8304949, 'x': -26.33423}, {'y': -48.8307631, 'x': -26.3342829}, {'y': -48.8306236, 'x': -26.3342589}, {'y': -48.8307631, 'x': -26.3342829}, {'y': -48.8349903, 'x': -26.3336915}, {'y': -48.8350976, 'x': -26.3345954}, {'y': -48.8350976, 'x': -26.3345954}, {'y': -48.8409448, 'x': -26.3208157}, {'y': -48.8450003, 'x': -26.3218447}, {'y': -48.8450754, 'x': -26.3199935}, {'y': -48.8451827, 'x': -26.3186424}, {'y': -48.8420606, 'x': -26.3181423}, {'y': -48.8409448, 'x': -26.3208157}, {'y': -48.8451827, 'x': -26.3186424}, {'y': -48.8450003, 'x': -26.3218447}, {'y': -48.8449895, 'x': -26.320258}, {'y': -48.8450271, 'x': -26.3215129}, {'y': -48.843348, 'x': -26.324167}, {'y': -48.8434875, 'x': -26.3241719}, {'y': -48.8483799, 'x': -26.3031296}, {'y': -48.8481438, 'x': -26.3034277}, {'y': -48.8484067, 'x': -26.3030719}, {'y': -48.8483799, 'x': -26.3031296}, {'y': -48.8481438, 'x': -26.3034277}, {'y': -48.8481975, 'x': -26.3032787}, {'y': -48.8444424, 'x': -26.3016292}, {'y': -48.8466257, 'x': -26.3015282}, {'y': -48.8499892, 'x': -26.3013791}, {'y': -48.8454455, 'x': -26.302793}, {'y': -48.8442814, 'x': -26.3026102}, {'y': -48.8448662, 'x': -26.3025766}, {'y': -48.8450485, 'x': -26.3025621}, {'y': -48.844775, 'x': -26.2987918}, {'y': -48.8447428, 'x': -26.2990322}, {'y': -48.8448071, 'x': -26.3016388}, {'y': -48.8447589, 'x': -26.3012012}, {'y': -48.8423234, 'x': -26.3005183}, {'y': -48.842243, 'x': -26.3006962}, {'y': -48.8422993, 'x': -26.300612}]]}
