ti1 = [-48.8323402, -26.3367132, -48.8317582, -26.3364079, -48.8316402, -26.3366579, -48.8315302, -26.33673, -48.8314149, -26.3367132, -48.8313344, -26.3366435, -48.8312083, -26.3364223, -48.8310689, -26.3361627, -48.8309348, -26.3356819, -48.8309991, -26.335105, -48.8310742, -26.3342492, -48.8304949, -26.33423]
ti2 = [-48.8323134, -26.3367336, -48.8321981, -26.3366531, -48.8320948, -26.3365701, -48.8317542, -26.3363947, -48.8317274, -26.3362504, -48.8316321, -26.3357108, -48.8313317, -26.3357492, -48.8309133, -26.3358358, -48.8309991, -26.335105, -48.8308972, -26.3342901, -48.8307631, -26.3342829]
ti3 = [-48.8323402, -26.3367132, -48.8317582, -26.3364079, -48.8316429, -26.3360185, -48.8316429, -26.3355665, -48.8316321, -26.3352973, -48.8309348, -26.3352204, -48.8310742, -26.3342492, -48.8306236, -26.3342589]
ti4 = [-48.8323134, -26.3367336, -48.8316858, -26.3364031, -48.8316321, -26.3357108, -48.8316321, -26.3352973, -48.8316751, -26.3343166, -48.831085, -26.3343069, -48.8307631, -26.3342829]
ti5 = [-48.8323402, -26.3367132, -48.8316858, -26.3364031, -48.8316321, -26.3357108, -48.8316536, -26.3348742, -48.8317072, -26.3342396, -48.8324368, -26.3342396, -48.8332844, -26.33423, -48.8338637, -26.3341339, -48.8342071, -26.3340185, -48.8347328, -26.3338935, -48.8349903, -26.3336915]
ti6 = [-48.8323402, -26.3367132, -48.8316858, -26.3364031, -48.8316429, -26.3358069, -48.8316321, -26.3352973, -48.8316751, -26.3343166, -48.8320291, -26.3343069, -48.8329947, -26.3342204, -48.8338637, -26.3341339, -48.8343894, -26.3346531, -48.8345075, -26.3347877, -48.8349795, -26.3344992, -48.8350976, -26.3345954]
ti7 = [-48.8323402, -26.3367132, -48.8317582, -26.3364079, -48.8316429, -26.3360185, -48.8316214, -26.3354896, -48.8316643, -26.3347012, -48.8316751, -26.3343166, -48.8328552, -26.3341916, -48.8336492, -26.3341339, -48.8340783, -26.3340089, -48.834368, -26.3339127, -48.8346899, -26.3342108, -48.8350976, -26.3345954]
tb1 = [-48.8423395, -26.3217678, -48.842361, -26.321335, -48.842361, -26.3210561, -48.8423932, -26.3208638, -48.841964, -26.3208446, -48.8409448, -26.3208157]
tb2 = [-48.8423717, -26.3216908, -48.8423878, -26.3213831, -48.8423985, -26.3209744, -48.8423932, -26.3208638, -48.8430905, -26.3208782, -48.8432407, -26.3208782, -48.8439918, -26.3209263, -48.8446784, -26.3209696, -48.8450861, -26.3210081, -48.845011, -26.3212773, -48.845011, -26.3215754, -48.8450003, -26.3218447]
tb3 = [-48.8423985, -26.3216524, -48.84242, -26.321436, -48.8424146, -26.3211619, -48.8424093, -26.3208975, -48.8428009, -26.320883, -48.8433909, -26.3209023, -48.8439006, -26.3208975, -48.8439918, -26.3209263, -48.845011, -26.3209744, -48.8450646, -26.3209023, -48.8450485, -26.3205994, -48.84507, -26.3204503, -48.8450539, -26.3202147, -48.8450754, -26.3199935]
tb4 = [-48.8425219, -26.3179884, -48.8425004, -26.3183346, -48.8424575, -26.3189501, -48.8433051, -26.318979, -48.8438845, -26.3190174, -48.8451183, -26.3190847, -48.8451827, -26.3186424]
tb5 = [-48.8425219, -26.3179884, -48.8425326, -26.3184212, -48.842479, -26.3187001, -48.8424575, -26.3189501, -48.8420069, -26.3189116, -48.8417494, -26.3188924, -48.841846, -26.3184212, -48.8420606, -26.3181423]
tb7 = [-48.8425648, -26.3180702, -48.8425112, -26.3183683, -48.842479, -26.3187001, -48.8424951, -26.3189405, -48.8420713, -26.3189165, -48.8415295, -26.3188876, -48.8411111, -26.318878, -48.8410735, -26.3192242, -48.8410789, -26.3196858, -48.8410467, -26.3199935, -48.8410413, -26.3204551, -48.8410306, -26.3208061, -48.8409448, -26.3208157]
tb8 = [-48.8450646, -26.3209023, -48.8450968, -26.3203734, -48.8450325, -26.3199022, -48.8451076, -26.319479, -48.8451397, -26.3189886, -48.8451827, -26.3186424]
tb9 = [-48.8450646, -26.3209023, -48.845011, -26.3212773, -48.8449895, -26.3215081, -48.8450003, -26.3218447]
tb10 = [-48.8423288, -26.3214793, -48.842361, -26.3210561, -48.8424575, -26.3208542, -48.8429403, -26.320883, -48.8437074, -26.3208879, -48.8444692, -26.3209359, -48.845011, -26.3209744, -48.8450485, -26.3207244, -48.8450432, -26.3203638, -48.8449895, -26.320258]
tb11 = [-48.8449895, -26.320258, -48.84507, -26.3204503, -48.8450485, -26.3207244, -48.8450485, -26.3209552, -48.845011, -26.3212148, -48.8450271, -26.3215129]
tb12 = [-48.8422698, -26.3230516, -48.8422966, -26.3234506, -48.8422483, -26.3237535, -48.8422, -26.3240661, -48.843348, -26.324167]
tb13 = [-48.8422993, -26.3230636, -48.8422886, -26.3233593, -48.8422564, -26.3235228, -48.842251, -26.3238377, -48.8422376, -26.324006, -48.8422135, -26.3241238, -48.8422886, -26.3241478, -48.84253, -26.3241118, -48.8430503, -26.3241358, -48.8434419, -26.3241622, -48.8434875, -26.3241719]
tc1 = [-48.8478112, -26.3019466, -48.8478971, -26.3017927, -48.8479936, -26.3016292, -48.8482082, -26.3017157, -48.8486052, -26.3020812, -48.8490558, -26.3024082, -48.8487232, -26.3027256, -48.8484764, -26.3029757, -48.8483799, -26.3031296]
tc2 = [-48.8478112, -26.3019466, -48.8479078, -26.3016869, -48.8479292, -26.3016051, -48.8481277, -26.3016773, -48.8484818, -26.3019418, -48.8487339, -26.3021485, -48.8490558, -26.3024467, -48.8487983, -26.3026343, -48.8485354, -26.3029324, -48.8482404, -26.3032402, -48.8481438, -26.3034277]
tc3 = [-48.8478112, -26.3019466, -48.8479453, -26.301658, -48.8480526, -26.3016676, -48.8479775, -26.3018889, -48.8479292, -26.3021053, -48.847779, -26.3024852, -48.8475591, -26.3027256, -48.8475055, -26.3028651, -48.847881, -26.3028555, -48.8482994, -26.3028266, -48.8485891, -26.302841, -48.8484067, -26.3030719]
tc4 = [-48.8478112, -26.3019466, -48.8477468, -26.3021534, -48.8475537, -26.3024227, -48.8472801, -26.3027256, -48.8474464, -26.302817, -48.847661, -26.3028459, -48.8480741, -26.3028266, -48.8485891, -26.302841, -48.8484281, -26.3029901, -48.8483799, -26.3031296]
tc5 = [-48.8463789, -26.3039567, -48.8465291, -26.3036586, -48.846969, -26.3036634, -48.8477898, -26.3036009, -48.8480419, -26.3035143, -48.8481438, -26.3034277]
tc6 = [-48.8463789, -26.3039567, -48.8464272, -26.3037692, -48.8465291, -26.3036586, -48.8466525, -26.3035432, -48.8467759, -26.3036009, -48.846969, -26.3036634, -48.8473928, -26.3036057, -48.8476717, -26.3036201, -48.8478971, -26.3036297, -48.8480097, -26.303548, -48.8481975, -26.3032787]
tc7 = [-48.8479292, -26.3021053, -48.8478971, -26.3014368, -48.8470387, -26.3015138, -48.8458586, -26.3016003, -48.8454831, -26.3015715, -48.8446462, -26.3016099, -48.8444424, -26.3016292]
tc8 = [-48.8479078, -26.3016869, -48.8479346, -26.301456, -48.8472319, -26.3014945, -48.8468349, -26.3015089, -48.8466257, -26.3015282]
tc9 = [-48.8478971, -26.3017927, -48.8480043, -26.3014272, -48.849206, -26.3014176, -48.8499892, -26.3013791]
tc10 = [-48.8446033, -26.3016869, -48.8445818, -26.3020524, -48.8445818, -26.3022784, -48.8445818, -26.3025525, -48.8448662, -26.3025766, -48.8452095, -26.3025573, -48.8454616, -26.3025525, -48.8454884, -26.3027208, -48.8454455, -26.302793]
tc11 = [-48.844555, -26.3016917, -48.8445336, -26.3021437, -48.8445765, -26.3024034, -48.8445818, -26.3025525, -48.8445336, -26.3026054, -48.8442814, -26.3026102]
tc12 = [-48.8453543, -26.3012973, -48.8453543, -26.301533, -48.845365, -26.3016436, -48.8451827, -26.301634, -48.8448071, -26.3016388, -48.8445121, -26.3016725, -48.8445711, -26.3018696, -48.8445818, -26.3022784, -48.8445818, -26.3026006, -48.844716, -26.302591, -48.8448662, -26.3025766]
tc13 = [-48.8441902, -26.3012781, -48.844201, -26.3015234, -48.8442224, -26.3016965, -48.8445121, -26.3016725, -48.8445711, -26.3018696, -48.8445818, -26.3022784, -48.8445818, -26.3025525, -48.8449466, -26.3025766, -48.8450485, -26.3025621]
tc14 = [-48.8441902, -26.3012781, -48.8441795, -26.3011194, -48.8441366, -26.3008453, -48.8441366, -26.3006145, -48.8440937, -26.3002345, -48.8440239, -26.2999364, -48.8446677, -26.2998787, -48.8447964, -26.2998787, -48.844732, -26.2995853, -48.8447267, -26.2992871, -48.844732, -26.2991236, -48.844775, -26.2989216, -48.844775, -26.2987918]
tc15 = [-48.8441902, -26.3012781, -48.8441366, -26.3008453, -48.8440883, -26.300398, -48.8440239, -26.2999364, -48.8439703, -26.2995709, -48.8439918, -26.2991861, -48.8443029, -26.2991381, -48.8448071, -26.2991573, -48.8447428, -26.2990322]
tc16 = [-48.844732, -26.2991236, -48.8451612, -26.2991092, -48.8452363, -26.2995516, -48.8452578, -26.2998979, -48.8453007, -26.3004654, -48.8453436, -26.3008982, -48.8453865, -26.3013695, -48.845365, -26.3016436, -48.8448071, -26.3016388]
tc17 = [-48.8448179, -26.2991044, -48.8452202, -26.2990996, -48.8452148, -26.2993256, -48.8452363, -26.2998402, -48.8452899, -26.3003644, -48.845306, -26.3006818, -48.8450325, -26.3007347, -48.844732, -26.300802, -48.8447964, -26.3011435, -48.8447589, -26.3012012]
tc18 = [-48.8442117, -26.3012108, -48.8442117, -26.3009896, -48.8441795, -26.3007876, -48.8439649, -26.300802, -48.8436967, -26.3008212, -48.8433588, -26.3008212, -48.8430154, -26.3008453, -48.8423234, -26.3008645, -48.8422215, -26.3007347, -48.8423234, -26.3005183]
tc19 = [-48.8442117, -26.3012108, -48.8440561, -26.3011723, -48.8437772, -26.3012204, -48.8436109, -26.3011435, -48.843568, -26.3009655, -48.8435143, -26.3008597, -48.8431871, -26.3008405, -48.8428384, -26.3008741, -48.8425916, -26.3008741, -48.8424522, -26.3008982, -48.8423234, -26.3008645, -48.842243, -26.3006962]
tc20 = [-48.8441983, -26.3011891, -48.8441741, -26.3009631, -48.8439944, -26.3009655, -48.843686, -26.3009751, -48.8435465, -26.3009174, -48.8435251, -26.3008405, -48.8430959, -26.300879, -48.8429564, -26.3008838, -48.8427043, -26.300903, -48.8425434, -26.3008958, -48.8424146, -26.3008982, -48.8424817, -26.3008429, -48.8423154, -26.3008092, -48.8422966, -26.3007467, -48.8422993, -26.300612]
